{
    "env": {
        "MONGODB_USER": "marko",
        "MONGODB_PASSWORD": "marko",
        "MONGODB_DEFAULT_DATABASE": "shop",
        "STRIPE_KEY": "sk_test_hML0AqkBSBFDT9W3Zg3AzHTL00QKOy8TVs",
        "NODE_ENV": "development"
    }
}